[
{
    "name":"iPhone 11 Pro 64Gb (USED)",
    "price": 15999,
    "imgUrl": "https://pixel.com.ua/image/cache/catalog/11IPHONE/11/iphone11pro_midnight_green_main-228x228.jpg",
    "article": 300125126,
    "color" : "Midnight Green"

},
{
    "name":"iPhone 11 Pro 256Gb (USED)",
    "price": 18199,
    "imgUrl": "https://pixel.com.ua/image/cache/catalog/11IPHONE/11/iphone11pro_gold_main-228x228.jpg",
    "article": 300125127,
    "color" : "Gold "

},
{
    "name":"iPhone 11 Pro 256Gb (USED)",
    "price": 18199,
    "imgUrl": "https://pixel.com.ua/image/cache/catalog/11IPHONE/11/iphone11pro_silver_main-228x228.jpg",
    "article": 300125128,
    "color" : "Silver "

},
{
    "name":"iPhone 11 Pro 64Gb (USED)",
    "price": 15999,
    "imgUrl": "https://pixel.com.ua/image/cache/catalog/11IPHONE/11/iphone11pro_spacegray_main-228x228.jpg",
    "article": 300125129,
    "color" : "Space Gray"

},
{
    "name":"iPhone 12 128Gb (USED)",
    "price": 19999,
    "imgUrl": "https://pixel.com.ua/image/cache/catalog/12%20iphone/101-228x228.jpg",
    "article": 300125130,
    "color" : "Blue"

},
{
    "name":"iPhone 12 128Gb (USED)",
    "price": 19999,
    "imgUrl": "https://pixel.com.ua/image/cache/catalog/11IPHONE/11/iphone12green/iphone12green1-228x228.png",
    "article": 300125131,
    "color" : "Green "

},
{
    "name":"iPhone 12 128Gb (USED)",
    "price": 19999,
    "imgUrl": "https://pixel.com.ua/image/cache/catalog/11IPHONE/11/iphone12black/iphone12black-800x800.png",
    "article": 300125132,
    "color" : "Black "

},
{
    "name":"iPhone 12 128Gb (USED)",
    "price": 19999,
    "imgUrl": "https://pixel.com.ua/image/cache/catalog/11IPHONE/11/iphone12red/iphone12red-800x800.png",
    "article": 300125133,
    "color" : "Red "

},
{
    "name":"iPhone 12 128Gb (USED)",
    "price": 19999,
    "imgUrl": "https://pixel.com.ua/image/cache/catalog/11IPHONE/11/iphone12white/iphone12white-228x228.png",
    "article": 300125134,
    "color" : "White"

},
{
    "name":"iPhone 13 128Gb (USED)",
    "price": 24799,
    "imgUrl": "https://pixel.com.ua/image/cache/catalog/iphone13/green/3-800x800.png",
    "article": 300125135,
    "color" : "Alpine Green"

},
{
    "name":"iPhone 13 128Gb (USED)",
    "price": 24799,
    "imgUrl": "https://pixel.com.ua/image/cache/catalog/iphone13/blue/abecb464d7f2cb59f7eb795cff0a96ae-800x800.jpg",
    "article": 300125136,
    "color" : "Blue"

},
{
    "name":"iPhone 13 128Gb (USED)",
    "price": 24799,
    "imgUrl": "https://pixel.com.ua/image/cache/catalog/iphone13/midnight/ab0c89f53f722f35b033dbb1f4cc3974-800x800.jpg",
    "article": 300125137,
    "color" : "Midnight"

},
{
    "name":"iPhone 13 128Gb (USED)",
    "price": 24799,
    "imgUrl": "https://pixel.com.ua/image/cache/catalog/iphone13/pink/d2553f47f5a7f38f2c54f86e362c54df-800x800.jpg",
    "article": 300125138,
    "color" : "Pink"

},
{
    "name":"iPhone 13 128Gb (USED)",
    "price": 24799,
    "imgUrl": "https://pixel.com.ua/image/cache/catalog/iphone13/productred/a5cdbe8091a783bd060df2c1f6ab8d0d-800x800.jpg",
    "article": 300125139,
    "color" : "Red"

},
{
    "name":"iPhone 13 128Gb (USED)",
    "price": 24799,
    "imgUrl": "https://pixel.com.ua/image/cache/catalog/iphone13/starlight/cd5baef7baa32ae27bc742fc1d666a2e-800x800.jpg",
    "article": 300125140,
    "color" : "Starlight"

}
]